[
    {
        "name": "000005",
        "subject__c": "session 5",
        "description__c": null,
        "startdatetime__c": "2017-06-14T12:30:00.000+0000",
        "enddatetime__c": "2017-06-21T11:00:00.000+0000",
        "eventid__c": "a030Y000008qu5xQAA",
        "id": "a020Y00000BJ5UqQAL"
    },
    {
        "name": "000007",
        "subject__c": "session 7",
        "description__c": null,
        "startdatetime__c": "2017-06-14T13:00:00.000+0000",
        "enddatetime__c": "2017-06-30T11:00:00.000+0000",
        "eventid__c": "a030Y000008qu5xQAA",
        "id": "a020Y00000BJ5UrQAL"
    },
    {
        "name": "000008",
        "subject__c": "session 8",
        "description__c": null,
        "startdatetime__c": "2017-06-22T11:00:00.000+0000",
        "enddatetime__c": "2017-06-16T11:00:00.000+0000",
        "eventid__c": "a030Y000008qu5xQAA",
        "id": "a020Y00000BIz4gQAD"
    },
    {
        "name": "000001",
        "subject__c": "session 1",
        "description__c": null,
        "startdatetime__c": "2017-06-13T11:00:00.000+0000",
        "enddatetime__c": "2017-06-14T11:00:00.000+0000",
        "eventid__c": "a030Y000008qu5xQAA",
        "id": "a020Y00000BImeYQAT"
    },
    {
        "name": "000002",
        "subject__c": "session 2",
        "description__c": null,
        "startdatetime__c": "2017-06-08T11:00:00.000+0000",
        "enddatetime__c": "2017-06-22T11:00:00.000+0000",
        "eventid__c": "a030Y000008qu5xQAA",
        "id": "a020Y00000BIwWFQA1"
    },
    {
        "name": "000004",
        "subject__c": "session 4",
        "description__c": null,
        "startdatetime__c": "2017-06-23T11:00:00.000+0000",
        "enddatetime__c": "2017-06-23T11:00:00.000+0000",
        "eventid__c": "a030Y000008qu5xQAA",
        "id": "a020Y00000BIwWGQA1"
    },
    {
        "name": "000003",
        "subject__c": "session 3",
        "description__c": null,
        "startdatetime__c": "2017-06-15T11:00:00.000+0000",
        "enddatetime__c": "2017-06-23T11:00:00.000+0000",
        "eventid__c": "a030Y000008qu5xQAA",
        "id": "a020Y00000BIz4dQAD"
    },
    {
        "name": "000006",
        "subject__c": "session 7",
        "description__c": null,
        "startdatetime__c": "2017-07-07T12:30:00.000+0000",
        "enddatetime__c": "2017-06-22T13:30:00.000+0000",
        "eventid__c": "a030Y000008qu5xQAA",
        "id": "a020Y00000BIz4eQAD"
    },
    {
        "name": "000010",
        "subject__c": "sessions my 2",
        "description__c": null,
        "startdatetime__c": "2017-06-07T11:00:00.000+0000",
        "enddatetime__c": "2017-06-23T11:00:00.000+0000",
        "eventid__c": "a030Y000008qu67QAA",
        "id": "a020Y00000BXxcKQAT"
    },
    {
        "name": "000009",
        "subject__c": "session 1",
        "description__c": null,
        "startdatetime__c": "2017-06-08T11:30:00.000+0000",
        "enddatetime__c": "2017-06-16T11:00:00.000+0000",
        "eventid__c": "a030Y000008qu67QAA",
        "id": "a020Y00000BXxc6QAD"
    }
]